Economic freedom Index Regression Model
…
data manipulation

Selecting only the freedom index from the economic freedom data

freedom <- df %>% 
  select(`Financial Freedom`, `Investment Freedom`, `Business Freedom`, `Labor Freedom`, `Monetary\ Freedom`, `Trade Freedom`)
freedom

## # A tibble: 186 x 6
##    `Financial Free~ `Investment Fre~ `Business Freed~ `Labor Freedom`
##    <chr>            <chr>            <chr>            <chr>          
##  1 10               10               49.2             60.4           
##  2 70               70               69.3             52.7           
##  3 30               30               61.6             49.9           
##  4 40               30               55.7             58.8           
##  5 60               55               56.4             46.9           
##  6 70               75               78.3             71.4           
##  7 90               80               88.3             84.1           
##  8 70               90               74.9             68.7           
##  9 60               60               69.5             63.9           
## 10 60               50               68.5             67.5           
## # ... with 176 more rows, and 2 more variables: `Monetary Freedom` <chr>,
## #   `Trade Freedom` <chr>
…
